{
  "servicename": "belajar-golang",
  "httpaddress": {
    "addr1": ":"
  },
  "timezone": "Asia/Jakarta",
  "dbconfig": {
    "host": "127.0.0.1",
    "port": "5432",
    "name": "postgres",
    "user": "postgres",
    "password": "",
    "maxopenconn": 50,
    "maxidleconn": 10,
    "connecttimeout": 30,
    "applicationname": "belajar-golang"
  }
}
